(kicad_sch (version 20211123) (generator eeschema)

  (uuid 9538e4ed-27e6-4c37-b989-9859dc0d49e8)

  (paper "A4")

  (lib_symbols
    (symbol "Analog_ADC:MCP3008" (pin_names (offset 1.016)) (in_bom yes) (on_board yes)
      (property "Reference" "U" (id 0) (at -5.08 13.335 0)
        (effects (font (size 1.27 1.27)) (justify right))
      )
      (property "Value" "MCP3008" (id 1) (at -5.08 11.43 0)
        (effects (font (size 1.27 1.27)) (justify right))
      )
      (property "Footprint" "" (id 2) (at 2.54 2.54 0)
        (effects (font (size 1.27 1.27)) hide)
      )
      (property "Datasheet" "http://ww1.microchip.com/downloads/en/DeviceDoc/21295d.pdf" (id 3) (at 2.54 2.54 0)
        (effects (font (size 1.27 1.27)) hide)
      )
      (property "ki_keywords" "12bit ADC Reference Single Supply SPI 8CH" (id 4) (at 0 0 0)
        (effects (font (size 1.27 1.27)) hide)
      )
      (property "ki_description" "A/D Converter, 10-Bit, 8-Channel, SPI Interface , 2.7V-5.5V" (id 5) (at 0 0 0)
        (effects (font (size 1.27 1.27)) hide)
      )
      (property "ki_fp_filters" "DIP*W7.62mm* SOIC*3.9x9.9mm*P1.27mm*" (id 6) (at 0 0 0)
        (effects (font (size 1.27 1.27)) hide)
      )
      (symbol "MCP3008_0_0"
        (text "ADC" (at -0.635 1.27 0)
          (effects (font (size 1.27 1.27)))
        )
        (text "CNTRL" (at 5.969 -2.921 900)
          (effects (font (size 1.27 1.27)) (justify left bottom))
        )
        (text "MUX" (at -6.35 -1.27 900)
          (effects (font (size 1.27 1.27)))
        )
      )
      (symbol "MCP3008_0_1"
        (polyline
          (pts
            (xy -3.81 1.27)
            (xy -5.08 1.27)
          )
          (stroke (width 0) (type default) (color 0 0 0 0))
          (fill (type none))
        )
        (polyline
          (pts
            (xy 1.905 1.27)
            (xy 3.81 1.27)
          )
          (stroke (width 0) (type default) (color 0 0 0 0))
          (fill (type none))
        )
        (polyline
          (pts
            (xy -7.62 8.89)
            (xy -7.62 -11.43)
            (xy -5.08 -10.16)
            (xy -5.08 7.62)
            (xy -7.62 8.89)
          )
          (stroke (width 0) (type default) (color 0 0 0 0))
          (fill (type none))
        )
        (polyline
          (pts
            (xy 3.81 -3.175)
            (xy -3.81 -3.175)
            (xy -3.81 -11.43)
            (xy -6.35 -11.43)
            (xy -6.35 -10.795)
          )
          (stroke (width 0) (type default) (color 0 0 0 0))
          (fill (type none))
        )
        (polyline
          (pts
            (xy 1.905 3.175)
            (xy 1.905 -0.635)
            (xy -2.54 -0.635)
            (xy -3.81 1.27)
            (xy -2.54 3.175)
            (xy 1.905 3.175)
          )
          (stroke (width 0) (type default) (color 0 0 0 0))
          (fill (type none))
        )
        (rectangle (start 3.81 -3.81) (end 6.985 3.81)
          (stroke (width 0) (type default) (color 0 0 0 0))
          (fill (type none))
        )
        (rectangle (start 12.7 -12.7) (end -12.7 10.16)
          (stroke (width 0.254) (type default) (color 0 0 0 0))
          (fill (type background))
        )
      )
      (symbol "MCP3008_1_1"
        (pin input line (at -15.24 7.62 0) (length 2.54)
          (name "CH0" (effects (font (size 1.27 1.27))))
          (number "1" (effects (font (size 1.27 1.27))))
        )
        (pin input line (at 15.24 -5.08 180) (length 2.54)
          (name "~{CS}/SHDN" (effects (font (size 1.27 1.27))))
          (number "10" (effects (font (size 1.27 1.27))))
        )
        (pin input line (at 15.24 -2.54 180) (length 2.54)
          (name "Din" (effects (font (size 1.27 1.27))))
          (number "11" (effects (font (size 1.27 1.27))))
        )
        (pin output line (at 15.24 0 180) (length 2.54)
          (name "Dout" (effects (font (size 1.27 1.27))))
          (number "12" (effects (font (size 1.27 1.27))))
        )
        (pin input clock (at 15.24 2.54 180) (length 2.54)
          (name "CLK" (effects (font (size 1.27 1.27))))
          (number "13" (effects (font (size 1.27 1.27))))
        )
        (pin power_in line (at -2.54 -15.24 90) (length 2.54)
          (name "AGND" (effects (font (size 1.27 1.27))))
          (number "14" (effects (font (size 1.27 1.27))))
        )
        (pin power_in line (at -2.54 12.7 270) (length 2.54)
          (name "Vref" (effects (font (size 1.27 1.27))))
          (number "15" (effects (font (size 1.27 1.27))))
        )
        (pin power_in line (at 5.08 12.7 270) (length 2.54)
          (name "Vdd" (effects (font (size 1.27 1.27))))
          (number "16" (effects (font (size 1.27 1.27))))
        )
        (pin input line (at -15.24 5.08 0) (length 2.54)
          (name "CH1" (effects (font (size 1.27 1.27))))
          (number "2" (effects (font (size 1.27 1.27))))
        )
        (pin input line (at -15.24 2.54 0) (length 2.54)
          (name "CH2" (effects (font (size 1.27 1.27))))
          (number "3" (effects (font (size 1.27 1.27))))
        )
        (pin input line (at -15.24 0 0) (length 2.54)
          (name "CH3" (effects (font (size 1.27 1.27))))
          (number "4" (effects (font (size 1.27 1.27))))
        )
        (pin input line (at -15.24 -2.54 0) (length 2.54)
          (name "CH4" (effects (font (size 1.27 1.27))))
          (number "5" (effects (font (size 1.27 1.27))))
        )
        (pin input line (at -15.24 -5.08 0) (length 2.54)
          (name "CH5" (effects (font (size 1.27 1.27))))
          (number "6" (effects (font (size 1.27 1.27))))
        )
        (pin input line (at -15.24 -7.62 0) (length 2.54)
          (name "CH6" (effects (font (size 1.27 1.27))))
          (number "7" (effects (font (size 1.27 1.27))))
        )
        (pin input line (at -15.24 -10.16 0) (length 2.54)
          (name "CH7" (effects (font (size 1.27 1.27))))
          (number "8" (effects (font (size 1.27 1.27))))
        )
        (pin power_in line (at 5.08 -15.24 90) (length 2.54)
          (name "DGND" (effects (font (size 1.27 1.27))))
          (number "9" (effects (font (size 1.27 1.27))))
        )
      )
    )
    (symbol "Connector:USB_A" (pin_names (offset 1.016)) (in_bom yes) (on_board yes)
      (property "Reference" "J" (id 0) (at -5.08 11.43 0)
        (effects (font (size 1.27 1.27)) (justify left))
      )
      (property "Value" "USB_A" (id 1) (at -5.08 8.89 0)
        (effects (font (size 1.27 1.27)) (justify left))
      )
      (property "Footprint" "" (id 2) (at 3.81 -1.27 0)
        (effects (font (size 1.27 1.27)) hide)
      )
      (property "Datasheet" " ~" (id 3) (at 3.81 -1.27 0)
        (effects (font (size 1.27 1.27)) hide)
      )
      (property "ki_keywords" "connector USB" (id 4) (at 0 0 0)
        (effects (font (size 1.27 1.27)) hide)
      )
      (property "ki_description" "USB Type A connector" (id 5) (at 0 0 0)
        (effects (font (size 1.27 1.27)) hide)
      )
      (property "ki_fp_filters" "USB*" (id 6) (at 0 0 0)
        (effects (font (size 1.27 1.27)) hide)
      )
      (symbol "USB_A_0_1"
        (rectangle (start -5.08 -7.62) (end 5.08 7.62)
          (stroke (width 0.254) (type default) (color 0 0 0 0))
          (fill (type background))
        )
        (circle (center -3.81 2.159) (radius 0.635)
          (stroke (width 0.254) (type default) (color 0 0 0 0))
          (fill (type outline))
        )
        (rectangle (start -1.524 4.826) (end -4.318 5.334)
          (stroke (width 0) (type default) (color 0 0 0 0))
          (fill (type outline))
        )
        (rectangle (start -1.27 4.572) (end -4.572 5.842)
          (stroke (width 0) (type default) (color 0 0 0 0))
          (fill (type none))
        )
        (circle (center -0.635 3.429) (radius 0.381)
          (stroke (width 0.254) (type default) (color 0 0 0 0))
          (fill (type outline))
        )
        (rectangle (start -0.127 -7.62) (end 0.127 -6.858)
          (stroke (width 0) (type default) (color 0 0 0 0))
          (fill (type none))
        )
        (polyline
          (pts
            (xy -3.175 2.159)
            (xy -2.54 2.159)
            (xy -1.27 3.429)
            (xy -0.635 3.429)
          )
          (stroke (width 0.254) (type default) (color 0 0 0 0))
          (fill (type none))
        )
        (polyline
          (pts
            (xy -2.54 2.159)
            (xy -1.905 2.159)
            (xy -1.27 0.889)
            (xy 0 0.889)
          )
          (stroke (width 0.254) (type default) (color 0 0 0 0))
          (fill (type none))
        )
        (polyline
          (pts
            (xy 0.635 2.794)
            (xy 0.635 1.524)
            (xy 1.905 2.159)
            (xy 0.635 2.794)
          )
          (stroke (width 0.254) (type default) (color 0 0 0 0))
          (fill (type outline))
        )
        (rectangle (start 0.254 1.27) (end -0.508 0.508)
          (stroke (width 0.254) (type default) (color 0 0 0 0))
          (fill (type outline))
        )
        (rectangle (start 5.08 -2.667) (end 4.318 -2.413)
          (stroke (width 0) (type default) (color 0 0 0 0))
          (fill (type none))
        )
        (rectangle (start 5.08 -0.127) (end 4.318 0.127)
          (stroke (width 0) (type default) (color 0 0 0 0))
          (fill (type none))
        )
        (rectangle (start 5.08 4.953) (end 4.318 5.207)
          (stroke (width 0) (type default) (color 0 0 0 0))
          (fill (type none))
        )
      )
      (symbol "USB_A_1_1"
        (polyline
          (pts
            (xy -1.905 2.159)
            (xy 0.635 2.159)
          )
          (stroke (width 0.254) (type default) (color 0 0 0 0))
          (fill (type none))
        )
        (pin power_in line (at 7.62 5.08 180) (length 2.54)
          (name "VBUS" (effects (font (size 1.27 1.27))))
          (number "1" (effects (font (size 1.27 1.27))))
        )
        (pin bidirectional line (at 7.62 -2.54 180) (length 2.54)
          (name "D-" (effects (font (size 1.27 1.27))))
          (number "2" (effects (font (size 1.27 1.27))))
        )
        (pin bidirectional line (at 7.62 0 180) (length 2.54)
          (name "D+" (effects (font (size 1.27 1.27))))
          (number "3" (effects (font (size 1.27 1.27))))
        )
        (pin power_in line (at 0 -10.16 90) (length 2.54)
          (name "GND" (effects (font (size 1.27 1.27))))
          (number "4" (effects (font (size 1.27 1.27))))
        )
        (pin passive line (at -2.54 -10.16 90) (length 2.54)
          (name "Shield" (effects (font (size 1.27 1.27))))
          (number "5" (effects (font (size 1.27 1.27))))
        )
      )
    )
    (symbol "Connector_Generic_MountingPin:Conn_01x10_MountingPin" (pin_names (offset 1.016) hide) (in_bom yes) (on_board yes)
      (property "Reference" "J" (id 0) (at 0 12.7 0)
        (effects (font (size 1.27 1.27)))
      )
      (property "Value" "Conn_01x10_MountingPin" (id 1) (at 1.27 -15.24 0)
        (effects (font (size 1.27 1.27)) (justify left))
      )
      (property "Footprint" "" (id 2) (at 0 0 0)
        (effects (font (size 1.27 1.27)) hide)
      )
      (property "Datasheet" "~" (id 3) (at 0 0 0)
        (effects (font (size 1.27 1.27)) hide)
      )
      (property "ki_keywords" "connector" (id 4) (at 0 0 0)
        (effects (font (size 1.27 1.27)) hide)
      )
      (property "ki_description" "Generic connectable mounting pin connector, single row, 01x10, script generated (kicad-library-utils/schlib/autogen/connector/)" (id 5) (at 0 0 0)
        (effects (font (size 1.27 1.27)) hide)
      )
      (property "ki_fp_filters" "Connector*:*_1x??-1MP*" (id 6) (at 0 0 0)
        (effects (font (size 1.27 1.27)) hide)
      )
      (symbol "Conn_01x10_MountingPin_1_1"
        (rectangle (start -1.27 -12.573) (end 0 -12.827)
          (stroke (width 0.1524) (type default) (color 0 0 0 0))
          (fill (type none))
        )
        (rectangle (start -1.27 -10.033) (end 0 -10.287)
          (stroke (width 0.1524) (type default) (color 0 0 0 0))
          (fill (type none))
        )
        (rectangle (start -1.27 -7.493) (end 0 -7.747)
          (stroke (width 0.1524) (type default) (color 0 0 0 0))
          (fill (type none))
        )
        (rectangle (start -1.27 -4.953) (end 0 -5.207)
          (stroke (width 0.1524) (type default) (color 0 0 0 0))
          (fill (type none))
        )
        (rectangle (start -1.27 -2.413) (end 0 -2.667)
          (stroke (width 0.1524) (type default) (color 0 0 0 0))
          (fill (type none))
        )
        (rectangle (start -1.27 0.127) (end 0 -0.127)
          (stroke (width 0.1524) (type default) (color 0 0 0 0))
          (fill (type none))
        )
        (rectangle (start -1.27 2.667) (end 0 2.413)
          (stroke (width 0.1524) (type default) (color 0 0 0 0))
          (fill (type none))
        )
        (rectangle (start -1.27 5.207) (end 0 4.953)
          (stroke (width 0.1524) (type default) (color 0 0 0 0))
          (fill (type none))
        )
        (rectangle (start -1.27 7.747) (end 0 7.493)
          (stroke (width 0.1524) (type default) (color 0 0 0 0))
          (fill (type none))
        )
        (rectangle (start -1.27 10.287) (end 0 10.033)
          (stroke (width 0.1524) (type default) (color 0 0 0 0))
          (fill (type none))
        )
        (rectangle (start -1.27 11.43) (end 1.27 -13.97)
          (stroke (width 0.254) (type default) (color 0 0 0 0))
          (fill (type background))
        )
        (polyline
          (pts
            (xy -1.016 -14.732)
            (xy 1.016 -14.732)
          )
          (stroke (width 0.1524) (type default) (color 0 0 0 0))
          (fill (type none))
        )
        (text "Mounting" (at 0 -14.351 0)
          (effects (font (size 0.381 0.381)))
        )
        (pin passive line (at -5.08 10.16 0) (length 3.81)
          (name "Pin_1" (effects (font (size 1.27 1.27))))
          (number "1" (effects (font (size 1.27 1.27))))
        )
        (pin passive line (at -5.08 -12.7 0) (length 3.81)
          (name "Pin_10" (effects (font (size 1.27 1.27))))
          (number "10" (effects (font (size 1.27 1.27))))
        )
        (pin passive line (at -5.08 7.62 0) (length 3.81)
          (name "Pin_2" (effects (font (size 1.27 1.27))))
          (number "2" (effects (font (size 1.27 1.27))))
        )
        (pin passive line (at -5.08 5.08 0) (length 3.81)
          (name "Pin_3" (effects (font (size 1.27 1.27))))
          (number "3" (effects (font (size 1.27 1.27))))
        )
        (pin passive line (at -5.08 2.54 0) (length 3.81)
          (name "Pin_4" (effects (font (size 1.27 1.27))))
          (number "4" (effects (font (size 1.27 1.27))))
        )
        (pin passive line (at -5.08 0 0) (length 3.81)
          (name "Pin_5" (effects (font (size 1.27 1.27))))
          (number "5" (effects (font (size 1.27 1.27))))
        )
        (pin passive line (at -5.08 -2.54 0) (length 3.81)
          (name "Pin_6" (effects (font (size 1.27 1.27))))
          (number "6" (effects (font (size 1.27 1.27))))
        )
        (pin passive line (at -5.08 -5.08 0) (length 3.81)
          (name "Pin_7" (effects (font (size 1.27 1.27))))
          (number "7" (effects (font (size 1.27 1.27))))
        )
        (pin passive line (at -5.08 -7.62 0) (length 3.81)
          (name "Pin_8" (effects (font (size 1.27 1.27))))
          (number "8" (effects (font (size 1.27 1.27))))
        )
        (pin passive line (at -5.08 -10.16 0) (length 3.81)
          (name "Pin_9" (effects (font (size 1.27 1.27))))
          (number "9" (effects (font (size 1.27 1.27))))
        )
        (pin passive line (at 0 -17.78 90) (length 3.048)
          (name "MountPin" (effects (font (size 1.27 1.27))))
          (number "MP" (effects (font (size 1.27 1.27))))
        )
      )
    )
    (symbol "Interface_USB:CH330N" (in_bom yes) (on_board yes)
      (property "Reference" "U" (id 0) (at -7.62 6.35 0)
        (effects (font (size 1.27 1.27)) (justify left))
      )
      (property "Value" "CH330N" (id 1) (at 7.62 6.35 0)
        (effects (font (size 1.27 1.27)) (justify right))
      )
      (property "Footprint" "Package_SO:SOIC-8_3.9x4.9mm_P1.27mm" (id 2) (at -3.81 19.05 0)
        (effects (font (size 1.27 1.27)) hide)
      )
      (property "Datasheet" "http://www.wch.cn/downloads/file/240.html" (id 3) (at -2.54 5.08 0)
        (effects (font (size 1.27 1.27)) hide)
      )
      (property "ki_keywords" "usb uart wch serial" (id 4) (at 0 0 0)
        (effects (font (size 1.27 1.27)) hide)
      )
      (property "ki_description" "USB serial converter, UART, SOIC-8" (id 5) (at 0 0 0)
        (effects (font (size 1.27 1.27)) hide)
      )
      (property "ki_fp_filters" "SOIC*3.9x4.9mm*P1.27mm*" (id 6) (at 0 0 0)
        (effects (font (size 1.27 1.27)) hide)
      )
      (symbol "CH330N_0_1"
        (rectangle (start -7.62 5.08) (end 7.62 -7.62)
          (stroke (width 0.254) (type default) (color 0 0 0 0))
          (fill (type background))
        )
      )
      (symbol "CH330N_1_1"
        (pin bidirectional line (at -10.16 -2.54 0) (length 2.54)
          (name "UD+" (effects (font (size 1.27 1.27))))
          (number "1" (effects (font (size 1.27 1.27))))
        )
        (pin bidirectional line (at -10.16 -5.08 0) (length 2.54)
          (name "UD-" (effects (font (size 1.27 1.27))))
          (number "2" (effects (font (size 1.27 1.27))))
        )
        (pin power_in line (at 0 -10.16 90) (length 2.54)
          (name "GND" (effects (font (size 1.27 1.27))))
          (number "3" (effects (font (size 1.27 1.27))))
        )
        (pin output line (at 10.16 -5.08 180) (length 2.54)
          (name "~{RTS}" (effects (font (size 1.27 1.27))))
          (number "4" (effects (font (size 1.27 1.27))))
        )
        (pin power_in line (at 0 7.62 270) (length 2.54)
          (name "VCC" (effects (font (size 1.27 1.27))))
          (number "5" (effects (font (size 1.27 1.27))))
        )
        (pin output line (at 10.16 2.54 180) (length 2.54)
          (name "TXD" (effects (font (size 1.27 1.27))))
          (number "6" (effects (font (size 1.27 1.27))))
        )
        (pin input line (at 10.16 0 180) (length 2.54)
          (name "RXD" (effects (font (size 1.27 1.27))))
          (number "7" (effects (font (size 1.27 1.27))))
        )
        (pin passive line (at -10.16 2.54 0) (length 2.54)
          (name "V3" (effects (font (size 1.27 1.27))))
          (number "8" (effects (font (size 1.27 1.27))))
        )
      )
    )
    (symbol "Memory_EEPROM:24AA02-OT" (in_bom yes) (on_board yes)
      (property "Reference" "U" (id 0) (at -7.62 6.35 0)
        (effects (font (size 1.27 1.27)))
      )
      (property "Value" "24AA02-OT" (id 1) (at 2.54 -6.35 0)
        (effects (font (size 1.27 1.27)) (justify left))
      )
      (property "Footprint" "Package_TO_SOT_SMD:SOT-23-5" (id 2) (at 0 0 0)
        (effects (font (size 1.27 1.27)) hide)
      )
      (property "Datasheet" "http://ww1.microchip.com/downloads/en/DeviceDoc/21709J.pdf" (id 3) (at 0 0 0)
        (effects (font (size 1.27 1.27)) hide)
      )
      (property "ki_keywords" "I2C Serial EEPROM" (id 4) (at 0 0 0)
        (effects (font (size 1.27 1.27)) hide)
      )
      (property "ki_description" "I2C Serial EEPROM, 2Kb, SOT-23" (id 5) (at 0 0 0)
        (effects (font (size 1.27 1.27)) hide)
      )
      (property "ki_fp_filters" "SOT?23*" (id 6) (at 0 0 0)
        (effects (font (size 1.27 1.27)) hide)
      )
      (symbol "24AA02-OT_1_1"
        (rectangle (start -7.62 5.08) (end 7.62 -5.08)
          (stroke (width 0.254) (type default) (color 0 0 0 0))
          (fill (type background))
        )
        (pin input line (at 10.16 0 180) (length 2.54)
          (name "SCL" (effects (font (size 1.27 1.27))))
          (number "1" (effects (font (size 1.27 1.27))))
        )
        (pin power_in line (at 0 -7.62 90) (length 2.54)
          (name "GND" (effects (font (size 1.27 1.27))))
          (number "2" (effects (font (size 1.27 1.27))))
        )
        (pin bidirectional line (at 10.16 2.54 180) (length 2.54)
          (name "SDA" (effects (font (size 1.27 1.27))))
          (number "3" (effects (font (size 1.27 1.27))))
        )
        (pin power_in line (at 0 7.62 270) (length 2.54)
          (name "VCC" (effects (font (size 1.27 1.27))))
          (number "4" (effects (font (size 1.27 1.27))))
        )
        (pin no_connect line (at 7.62 -2.54 180) (length 2.54) hide
          (name "NC" (effects (font (size 1.27 1.27))))
          (number "5" (effects (font (size 1.27 1.27))))
        )
      )
    )
    (symbol "power:GND" (power) (pin_names (offset 0)) (in_bom yes) (on_board yes)
      (property "Reference" "#PWR" (id 0) (at 0 -6.35 0)
        (effects (font (size 1.27 1.27)) hide)
      )
      (property "Value" "GND" (id 1) (at 0 -3.81 0)
        (effects (font (size 1.27 1.27)))
      )
      (property "Footprint" "" (id 2) (at 0 0 0)
        (effects (font (size 1.27 1.27)) hide)
      )
      (property "Datasheet" "" (id 3) (at 0 0 0)
        (effects (font (size 1.27 1.27)) hide)
      )
      (property "ki_keywords" "power-flag" (id 4) (at 0 0 0)
        (effects (font (size 1.27 1.27)) hide)
      )
      (property "ki_description" "Power symbol creates a global label with name \"GND\" , ground" (id 5) (at 0 0 0)
        (effects (font (size 1.27 1.27)) hide)
      )
      (symbol "GND_0_1"
        (polyline
          (pts
            (xy 0 0)
            (xy 0 -1.27)
            (xy 1.27 -1.27)
            (xy 0 -2.54)
            (xy -1.27 -1.27)
            (xy 0 -1.27)
          )
          (stroke (width 0) (type default) (color 0 0 0 0))
          (fill (type none))
        )
      )
      (symbol "GND_1_1"
        (pin power_in line (at 0 0 270) (length 0) hide
          (name "GND" (effects (font (size 1.27 1.27))))
          (number "1" (effects (font (size 1.27 1.27))))
        )
      )
    )
    (symbol "power:PWR_FLAG" (power) (pin_numbers hide) (pin_names (offset 0) hide) (in_bom yes) (on_board yes)
      (property "Reference" "#FLG" (id 0) (at 0 1.905 0)
        (effects (font (size 1.27 1.27)) hide)
      )
      (property "Value" "PWR_FLAG" (id 1) (at 0 3.81 0)
        (effects (font (size 1.27 1.27)))
      )
      (property "Footprint" "" (id 2) (at 0 0 0)
        (effects (font (size 1.27 1.27)) hide)
      )
      (property "Datasheet" "~" (id 3) (at 0 0 0)
        (effects (font (size 1.27 1.27)) hide)
      )
      (property "ki_keywords" "power-flag" (id 4) (at 0 0 0)
        (effects (font (size 1.27 1.27)) hide)
      )
      (property "ki_description" "Special symbol for telling ERC where power comes from" (id 5) (at 0 0 0)
        (effects (font (size 1.27 1.27)) hide)
      )
      (symbol "PWR_FLAG_0_0"
        (pin power_out line (at 0 0 90) (length 0)
          (name "pwr" (effects (font (size 1.27 1.27))))
          (number "1" (effects (font (size 1.27 1.27))))
        )
      )
      (symbol "PWR_FLAG_0_1"
        (polyline
          (pts
            (xy 0 0)
            (xy 0 1.27)
            (xy -1.016 1.905)
            (xy 0 2.54)
            (xy 1.016 1.905)
            (xy 0 1.27)
          )
          (stroke (width 0) (type default) (color 0 0 0 0))
          (fill (type none))
        )
      )
    )
  )


  (junction (at 201.93 106.68) (diameter 0) (color 0 0 0 0)
    (uuid e0c8cbc1-51e2-4ce7-ab62-69cdee554788)
  )

  (no_connect (at 227.33 113.03) (uuid 08f62f8a-298a-43d1-883b-d2d1c3bdf0e0))
  (no_connect (at 266.7 109.22) (uuid 2c1d1fbe-39c7-4f2b-ac54-76ebd2647b28))
  (no_connect (at 264.16 154.94) (uuid 5003e115-7231-46b3-93d9-c2267ed5a1ff))
  (no_connect (at 259.08 149.86) (uuid 5dac782e-ed1e-4fee-8bf9-9ea74108dcaa))
  (no_connect (at 259.08 147.32) (uuid 5dac782e-ed1e-4fee-8bf9-9ea74108dcab))
  (no_connect (at 259.08 144.78) (uuid 5dac782e-ed1e-4fee-8bf9-9ea74108dcac))
  (no_connect (at 246.38 97.79) (uuid f1c90ced-832a-4aff-85c7-0a8770176312))

  (wire (pts (xy 208.28 149.86) (xy 208.28 153.67))
    (stroke (width 0) (type default) (color 0 0 0 0))
    (uuid 0ce1933f-7aab-41d3-bd2c-0c9af61e02f0)
  )
  (wire (pts (xy 210.82 144.78) (xy 207.01 144.78))
    (stroke (width 0) (type default) (color 0 0 0 0))
    (uuid 0da5665c-7fa4-4b65-9762-27f2eae1e1ad)
  )
  (wire (pts (xy 226.06 128.27) (xy 252.73 128.27))
    (stroke (width 0) (type default) (color 0 0 0 0))
    (uuid 10e56730-47ad-4f15-ab50-46ce86d5fe8d)
  )
  (wire (pts (xy 176.53 139.7) (xy 172.72 139.7))
    (stroke (width 0) (type default) (color 0 0 0 0))
    (uuid 179a1047-509b-410b-b065-e07ddf96a1b8)
  )
  (wire (pts (xy 176.53 147.32) (xy 172.72 147.32))
    (stroke (width 0) (type default) (color 0 0 0 0))
    (uuid 199533ba-9d8d-4136-84fb-9b759bceac1a)
  )
  (wire (pts (xy 214.63 152.4) (xy 251.46 152.4))
    (stroke (width 0) (type default) (color 0 0 0 0))
    (uuid 1c9047a4-52ee-47c9-8462-bd3500a86175)
  )
  (wire (pts (xy 266.7 100.33) (xy 270.51 100.33))
    (stroke (width 0) (type default) (color 0 0 0 0))
    (uuid 2ba18379-71d8-43b6-9a13-add6b1876a5d)
  )
  (wire (pts (xy 259.08 123.19) (xy 259.08 127))
    (stroke (width 0) (type default) (color 0 0 0 0))
    (uuid 3047cff9-91d3-4341-8c8c-b72556d1dafe)
  )
  (wire (pts (xy 270.51 121.92) (xy 256.54 121.92))
    (stroke (width 0) (type default) (color 0 0 0 0))
    (uuid 33e5d5c2-c314-4201-9c58-32e6c1a4c5a7)
  )
  (wire (pts (xy 176.53 144.78) (xy 172.72 144.78))
    (stroke (width 0) (type default) (color 0 0 0 0))
    (uuid 3489cac6-fca4-4dd6-a68c-de954924f73c)
  )
  (wire (pts (xy 201.93 104.14) (xy 201.93 106.68))
    (stroke (width 0) (type default) (color 0 0 0 0))
    (uuid 34b96439-f6df-42aa-a184-c42f5228627a)
  )
  (wire (pts (xy 207.01 149.86) (xy 208.28 149.86))
    (stroke (width 0) (type default) (color 0 0 0 0))
    (uuid 35a640fb-a4f8-4e3f-9fdb-444c43387146)
  )
  (wire (pts (xy 214.63 142.24) (xy 214.63 152.4))
    (stroke (width 0) (type default) (color 0 0 0 0))
    (uuid 3842bf48-8c1d-4d6d-aba4-d4c6e0195075)
  )
  (wire (pts (xy 252.73 128.27) (xy 252.73 134.62))
    (stroke (width 0) (type default) (color 0 0 0 0))
    (uuid 3bf3428e-3e59-4816-a78e-f73a0bcbfcdb)
  )
  (wire (pts (xy 210.82 149.86) (xy 210.82 144.78))
    (stroke (width 0) (type default) (color 0 0 0 0))
    (uuid 3e43ed96-13c3-47c1-b226-70f9af1f08d4)
  )
  (wire (pts (xy 252.73 134.62) (xy 259.08 134.62))
    (stroke (width 0) (type default) (color 0 0 0 0))
    (uuid 40433c54-d578-4bec-b125-85c695f954d5)
  )
  (wire (pts (xy 207.01 106.68) (xy 207.01 104.14))
    (stroke (width 0) (type default) (color 0 0 0 0))
    (uuid 42ff25e7-0664-401d-9f5e-202a4cdd14ea)
  )
  (wire (pts (xy 254 125.73) (xy 254 132.08))
    (stroke (width 0) (type default) (color 0 0 0 0))
    (uuid 438c48c6-de0c-499c-8718-7f271aeb3eb0)
  )
  (wire (pts (xy 201.93 106.68) (xy 207.01 106.68))
    (stroke (width 0) (type default) (color 0 0 0 0))
    (uuid 464955c8-d4f1-48b7-a636-672a85e175fe)
  )
  (wire (pts (xy 248.92 137.16) (xy 259.08 137.16))
    (stroke (width 0) (type default) (color 0 0 0 0))
    (uuid 4a70db8b-f7ca-4599-a2aa-851f56e59cbe)
  )
  (wire (pts (xy 256.54 129.54) (xy 259.08 129.54))
    (stroke (width 0) (type default) (color 0 0 0 0))
    (uuid 4b195342-0e75-4606-90fc-936e8970fecb)
  )
  (wire (pts (xy 266.7 105.41) (xy 266.7 109.22))
    (stroke (width 0) (type default) (color 0 0 0 0))
    (uuid 4e287f9b-7cfe-4e65-a513-8ab6aebfcbb4)
  )
  (wire (pts (xy 276.86 123.19) (xy 259.08 123.19))
    (stroke (width 0) (type default) (color 0 0 0 0))
    (uuid 560a9f0d-e82f-4b56-bdd8-b472db945879)
  )
  (wire (pts (xy 237.49 105.41) (xy 246.38 105.41))
    (stroke (width 0) (type default) (color 0 0 0 0))
    (uuid 5852443c-d6b1-414f-a479-20b446edd309)
  )
  (wire (pts (xy 256.54 87.63) (xy 256.54 92.71))
    (stroke (width 0) (type default) (color 0 0 0 0))
    (uuid 61a0e3f7-cb56-4874-b280-754220c9f63e)
  )
  (wire (pts (xy 210.82 149.86) (xy 250.19 149.86))
    (stroke (width 0) (type default) (color 0 0 0 0))
    (uuid 6619699b-a869-4a5b-ace9-c028d6d80b58)
  )
  (wire (pts (xy 176.53 152.4) (xy 172.72 152.4))
    (stroke (width 0) (type default) (color 0 0 0 0))
    (uuid 671729fd-aac3-49b1-beea-7a99a8e33fb3)
  )
  (wire (pts (xy 237.49 97.79) (xy 241.3 92.71))
    (stroke (width 0) (type default) (color 0 0 0 0))
    (uuid 6777d537-b888-40a6-a399-3a72573b8489)
  )
  (wire (pts (xy 270.51 100.33) (xy 270.51 121.92))
    (stroke (width 0) (type default) (color 0 0 0 0))
    (uuid 74fbfb82-e5e6-4baa-841f-3046d83083f7)
  )
  (wire (pts (xy 248.92 147.32) (xy 248.92 137.16))
    (stroke (width 0) (type default) (color 0 0 0 0))
    (uuid 76a40ebf-41bf-4d9e-b864-1cd66c094711)
  )
  (wire (pts (xy 251.46 142.24) (xy 259.08 142.24))
    (stroke (width 0) (type default) (color 0 0 0 0))
    (uuid 86ec41a3-f7d3-48c0-9197-878db5b9aa6c)
  )
  (wire (pts (xy 256.54 110.49) (xy 256.54 115.57))
    (stroke (width 0) (type default) (color 0 0 0 0))
    (uuid 8bc08f37-fe76-4c6a-a0fd-bbeb6d55249b)
  )
  (wire (pts (xy 189.23 125.73) (xy 189.23 132.08))
    (stroke (width 0) (type default) (color 0 0 0 0))
    (uuid 8e38a60f-16fc-4c1d-bc79-601cb0ddf03f)
  )
  (wire (pts (xy 276.86 97.79) (xy 276.86 123.19))
    (stroke (width 0) (type default) (color 0 0 0 0))
    (uuid 9dd0f83e-3d5d-4fc8-8b22-8a384a5e9e28)
  )
  (wire (pts (xy 250.19 149.86) (xy 250.19 139.7))
    (stroke (width 0) (type default) (color 0 0 0 0))
    (uuid a438174f-15e9-46f2-88ee-50648eaadeb9)
  )
  (wire (pts (xy 256.54 121.92) (xy 256.54 129.54))
    (stroke (width 0) (type default) (color 0 0 0 0))
    (uuid af6a8005-f35a-4ac0-89ba-1c0eded84de7)
  )
  (wire (pts (xy 254 132.08) (xy 259.08 132.08))
    (stroke (width 0) (type default) (color 0 0 0 0))
    (uuid b19a8f08-8a92-4dfd-970c-7515a61ee3ee)
  )
  (wire (pts (xy 226.06 125.73) (xy 254 125.73))
    (stroke (width 0) (type default) (color 0 0 0 0))
    (uuid b34cf37b-32a5-497e-9b3b-6b08c529489b)
  )
  (wire (pts (xy 193.04 160.02) (xy 189.23 160.02))
    (stroke (width 0) (type default) (color 0 0 0 0))
    (uuid b897f0bf-ef08-4fbd-8520-f0b7774d0c11)
  )
  (wire (pts (xy 266.7 97.79) (xy 276.86 97.79))
    (stroke (width 0) (type default) (color 0 0 0 0))
    (uuid c75746e5-d710-469f-89ac-19dda5fbcb51)
  )
  (wire (pts (xy 189.23 106.68) (xy 201.93 106.68))
    (stroke (width 0) (type default) (color 0 0 0 0))
    (uuid c95437c3-a140-4e70-b667-2277b4b31f5a)
  )
  (wire (pts (xy 229.87 113.03) (xy 229.87 116.84))
    (stroke (width 0) (type default) (color 0 0 0 0))
    (uuid d30cca0c-9d82-4161-905a-98a1d63a3c0f)
  )
  (wire (pts (xy 176.53 137.16) (xy 176.53 129.54))
    (stroke (width 0) (type default) (color 0 0 0 0))
    (uuid d5033f1b-08d3-494e-bfb8-2681709a9e20)
  )
  (wire (pts (xy 176.53 149.86) (xy 172.72 149.86))
    (stroke (width 0) (type default) (color 0 0 0 0))
    (uuid dc5172c5-524a-4209-aabc-bfe2c3aa4959)
  )
  (wire (pts (xy 250.19 139.7) (xy 259.08 139.7))
    (stroke (width 0) (type default) (color 0 0 0 0))
    (uuid e1e6735b-83b9-48f2-b69a-3f60cb6c7d22)
  )
  (wire (pts (xy 237.49 102.87) (xy 246.38 102.87))
    (stroke (width 0) (type default) (color 0 0 0 0))
    (uuid e1f5643b-6690-4de7-9a31-857518d50794)
  )
  (wire (pts (xy 248.92 147.32) (xy 207.01 147.32))
    (stroke (width 0) (type default) (color 0 0 0 0))
    (uuid ebb75d9d-2dfd-4f40-90a8-73b11a1cc4ad)
  )
  (wire (pts (xy 176.53 154.94) (xy 172.72 154.94))
    (stroke (width 0) (type default) (color 0 0 0 0))
    (uuid f56feeb6-1559-4e1b-ade1-900e859594c5)
  )
  (wire (pts (xy 176.53 142.24) (xy 172.72 142.24))
    (stroke (width 0) (type default) (color 0 0 0 0))
    (uuid f695d2f3-c10c-48eb-8e2e-a6efdb059af5)
  )
  (wire (pts (xy 196.85 125.73) (xy 196.85 132.08))
    (stroke (width 0) (type default) (color 0 0 0 0))
    (uuid f6b90adf-709f-4f25-9667-0fd36e07095d)
  )
  (wire (pts (xy 215.9 116.84) (xy 215.9 120.65))
    (stroke (width 0) (type default) (color 0 0 0 0))
    (uuid f84ab69f-6ecc-4a89-8e11-2f65d79eced1)
  )
  (wire (pts (xy 203.2 160.02) (xy 196.85 160.02))
    (stroke (width 0) (type default) (color 0 0 0 0))
    (uuid fa13a35f-965f-45b4-9b31-be5298be79d9)
  )
  (wire (pts (xy 222.25 135.89) (xy 215.9 135.89))
    (stroke (width 0) (type default) (color 0 0 0 0))
    (uuid fb2a994c-24b4-42f3-98b2-212da4da0654)
  )
  (wire (pts (xy 251.46 152.4) (xy 251.46 142.24))
    (stroke (width 0) (type default) (color 0 0 0 0))
    (uuid fcbe911a-b2be-4784-a446-08a0de977273)
  )
  (wire (pts (xy 214.63 142.24) (xy 207.01 142.24))
    (stroke (width 0) (type default) (color 0 0 0 0))
    (uuid fdd2654d-548c-440f-ba50-086a797cbfc6)
  )

  (text "SPI0_MISO" (at 238.76 149.86 0)
    (effects (font (size 1.27 1.27)) (justify left bottom))
    (uuid 38f34dd1-7978-4048-a62e-c18593f4c69a)
  )
  (text "RX" (at 265.43 121.92 0)
    (effects (font (size 1.27 1.27)) (justify left bottom))
    (uuid 493f68d5-2bf6-436d-a490-f0bcb6893b08)
  )
  (text "SPI0_MOSI" (at 238.76 147.32 0)
    (effects (font (size 1.27 1.27)) (justify left bottom))
    (uuid 6105557f-8c17-4cbd-af56-9e2e3fa9181c)
  )
  (text "Interface Module" (at 190.5 191.77 0)
    (effects (font (size 3 3) (thickness 0.6) bold italic) (justify left bottom))
    (uuid 75f83fa2-33d8-4bc8-9e55-a5d209519295)
  )
  (text "1.1" (at 273.05 194.31 0)
    (effects (font (size 1.27 1.27) bold) (justify left bottom))
    (uuid 878773f3-9fa2-48f5-a95e-384afd63efc0)
  )
  (text "SPI0_SCLK" (at 238.76 152.4 0)
    (effects (font (size 1.27 1.27)) (justify left bottom))
    (uuid 916fd422-c03f-417f-b025-5b23f9df010a)
  )
  (text "9 March 2022" (at 212.09 194.31 0)
    (effects (font (size 1.27 1.27) bold) (justify left bottom))
    (uuid 9a8c70c3-0045-4b9f-920a-5b93604bdaca)
  )
  (text "TX" (at 273.05 123.19 0)
    (effects (font (size 1.27 1.27)) (justify left bottom))
    (uuid a766d338-2a67-4e33-a782-34e148495ddc)
  )
  (text "I2C1_SDA" (at 243.84 125.73 0)
    (effects (font (size 1.27 1.27)) (justify left bottom))
    (uuid dcb6a4ae-219a-4276-85df-0ff680d91ca4)
  )
  (text "I2C1_SCL" (at 243.84 128.27 0)
    (effects (font (size 1.27 1.27)) (justify left bottom))
    (uuid e0001175-bfde-4afc-bc68-9598f8050efc)
  )

  (global_label "3V3" (shape input) (at 215.9 116.84 90) (fields_autoplaced)
    (effects (font (size 1.27 1.27)) (justify left))
    (uuid 0bab8e69-1bb1-4c44-a6b2-17fdc45ae97e)
    (property "Intersheet References" "${INTERSHEET_REFS}" (id 0) (at 139.7 81.28 0)
      (effects (font (size 1.27 1.27)) hide)
    )
  )
  (global_label "3V3" (shape input) (at 196.85 125.73 90) (fields_autoplaced)
    (effects (font (size 1.27 1.27)) (justify left))
    (uuid 14e0b231-8b9a-481b-aba8-a463be617f79)
    (property "Intersheet References" "${INTERSHEET_REFS}" (id 0) (at 115.57 50.8 0)
      (effects (font (size 1.27 1.27)) hide)
    )
  )
  (global_label "Sensor2" (shape input) (at 172.72 139.7 180) (fields_autoplaced)
    (effects (font (size 1.27 1.27)) (justify right))
    (uuid 17e3ad1c-f291-4702-a140-1ef75236881c)
    (property "Intersheet References" "${INTERSHEET_REFS}" (id 0) (at 115.57 50.8 0)
      (effects (font (size 1.27 1.27)) hide)
    )
  )
  (global_label "Sensor5" (shape input) (at 172.72 147.32 180) (fields_autoplaced)
    (effects (font (size 1.27 1.27)) (justify right))
    (uuid 20455dfb-b304-4d84-b33e-b6763f3d046f)
    (property "Intersheet References" "${INTERSHEET_REFS}" (id 0) (at 115.57 50.8 0)
      (effects (font (size 1.27 1.27)) hide)
    )
  )
  (global_label "Sensor4" (shape input) (at 172.72 144.78 180) (fields_autoplaced)
    (effects (font (size 1.27 1.27)) (justify right))
    (uuid 585796d6-34bb-46dd-8660-684e79d0dd02)
    (property "Intersheet References" "${INTERSHEET_REFS}" (id 0) (at 115.57 50.8 0)
      (effects (font (size 1.27 1.27)) hide)
    )
  )
  (global_label "Battery V" (shape input) (at 176.53 129.54 180) (fields_autoplaced)
    (effects (font (size 1.27 1.27)) (justify right))
    (uuid 63332d92-258f-4c01-a7f3-8e9c6b0c9618)
    (property "Intersheet References" "${INTERSHEET_REFS}" (id 0) (at 165.3479 129.4606 0)
      (effects (font (size 1.27 1.27)) (justify right) hide)
    )
  )
  (global_label "3V3" (shape input) (at 189.23 125.73 90) (fields_autoplaced)
    (effects (font (size 1.27 1.27)) (justify left))
    (uuid 6cdc7005-8faa-427e-b63e-2dd4c1df1558)
    (property "Intersheet References" "${INTERSHEET_REFS}" (id 0) (at 115.57 50.8 0)
      (effects (font (size 1.27 1.27)) hide)
    )
  )
  (global_label "3V3" (shape input) (at 207.01 104.14 90) (fields_autoplaced)
    (effects (font (size 1.27 1.27)) (justify left))
    (uuid aac60284-b3f5-43f7-93ab-f60274450278)
    (property "Intersheet References" "${INTERSHEET_REFS}" (id 0) (at 133.35 29.21 0)
      (effects (font (size 1.27 1.27)) hide)
    )
  )
  (global_label "Sensor6" (shape input) (at 172.72 149.86 180) (fields_autoplaced)
    (effects (font (size 1.27 1.27)) (justify right))
    (uuid ac9fa2e4-1f2f-44ef-b473-8dc743f32aee)
    (property "Intersheet References" "${INTERSHEET_REFS}" (id 0) (at 115.57 50.8 0)
      (effects (font (size 1.27 1.27)) hide)
    )
  )
  (global_label "3V3" (shape input) (at 241.3 92.71 90) (fields_autoplaced)
    (effects (font (size 1.27 1.27)) (justify left))
    (uuid c304c7a9-50fd-460e-9016-b49c04c66984)
    (property "Intersheet References" "${INTERSHEET_REFS}" (id 0) (at 165.1 57.15 0)
      (effects (font (size 1.27 1.27)) hide)
    )
  )
  (global_label "Sensor7" (shape input) (at 172.72 152.4 180) (fields_autoplaced)
    (effects (font (size 1.27 1.27)) (justify right))
    (uuid c51ae743-c593-458f-b42f-407adc0a7530)
    (property "Intersheet References" "${INTERSHEET_REFS}" (id 0) (at 115.57 50.8 0)
      (effects (font (size 1.27 1.27)) hide)
    )
  )
  (global_label "Sensor3" (shape input) (at 172.72 142.24 180) (fields_autoplaced)
    (effects (font (size 1.27 1.27)) (justify right))
    (uuid d1c959b2-6911-4815-9cf9-f6d32730e347)
    (property "Intersheet References" "${INTERSHEET_REFS}" (id 0) (at 115.57 50.8 0)
      (effects (font (size 1.27 1.27)) hide)
    )
  )
  (global_label "3V3" (shape input) (at 256.54 87.63 90) (fields_autoplaced)
    (effects (font (size 1.27 1.27)) (justify left))
    (uuid eb0806c5-c45a-4118-8af7-e5b803fcc588)
    (property "Intersheet References" "${INTERSHEET_REFS}" (id 0) (at 180.34 52.07 0)
      (effects (font (size 1.27 1.27)) hide)
    )
  )
  (global_label "Sensor8" (shape input) (at 172.72 154.94 180) (fields_autoplaced)
    (effects (font (size 1.27 1.27)) (justify right))
    (uuid ec29c278-4576-4663-9f88-4fa484a7149f)
    (property "Intersheet References" "${INTERSHEET_REFS}" (id 0) (at 115.57 50.8 0)
      (effects (font (size 1.27 1.27)) hide)
    )
  )

  (symbol (lib_id "Connector:USB_A") (at 229.87 102.87 0) (unit 1)
    (in_bom yes) (on_board yes) (fields_autoplaced)
    (uuid 052bdf62-e674-4ce6-a647-03593b114255)
    (property "Reference" "USBConnector1" (id 0) (at 229.87 90.17 0))
    (property "Value" "USB_A" (id 1) (at 229.87 92.71 0))
    (property "Footprint" "" (id 2) (at 233.68 104.14 0)
      (effects (font (size 1.27 1.27)) hide)
    )
    (property "Datasheet" " ~" (id 3) (at 233.68 104.14 0)
      (effects (font (size 1.27 1.27)) hide)
    )
    (pin "1" (uuid c7422964-8d1e-43b3-bdb6-6ebc941541fb))
    (pin "2" (uuid c6a0bcc9-0d62-47bc-ae3a-7b2fc9638325))
    (pin "3" (uuid 04216201-d415-4da3-9f88-fe24876cea5b))
    (pin "4" (uuid 5d15139b-3d28-404e-8bff-c446a2792a27))
    (pin "5" (uuid 832f9019-a870-4789-a9b9-6b8920c0ef98))
  )

  (symbol (lib_id "Connector_Generic_MountingPin:Conn_01x10_MountingPin") (at 264.16 137.16 0) (unit 1)
    (in_bom yes) (on_board yes) (fields_autoplaced)
    (uuid 1f9d26c3-c634-41de-bcc5-9d718a55f5ad)
    (property "Reference" "pinConnector1" (id 0) (at 266.7 137.5155 0)
      (effects (font (size 1.27 1.27)) (justify left))
    )
    (property "Value" "Conn_01x10_MountingPin" (id 1) (at 266.7 140.0555 0)
      (effects (font (size 1.27 1.27)) (justify left))
    )
    (property "Footprint" "" (id 2) (at 264.16 137.16 0)
      (effects (font (size 1.27 1.27)) hide)
    )
    (property "Datasheet" "~" (id 3) (at 264.16 137.16 0)
      (effects (font (size 1.27 1.27)) hide)
    )
    (pin "1" (uuid 173d499b-4d6f-4908-9700-cd41d28ed145))
    (pin "10" (uuid e9a6e673-2eec-4593-8e8f-a33f469a5c37))
    (pin "2" (uuid 7dad3a52-0fc3-4f5a-a6e2-6c215c0dbb1d))
    (pin "3" (uuid 051471c0-2a7e-4153-ae14-b8c0416b68d7))
    (pin "4" (uuid 5ed0550a-d9b8-41c8-b37c-71e012bdf322))
    (pin "5" (uuid 6ea24cd7-b9dd-47cd-8f79-c56e09a66641))
    (pin "6" (uuid 8b64bd12-445a-4563-ad8c-c5eeb338546b))
    (pin "7" (uuid b9a80c49-0190-4da5-914c-361da6982c8a))
    (pin "8" (uuid 7a6ae743-7192-4c92-beab-64b470fb2d0e))
    (pin "9" (uuid 1fefce23-c185-4d0d-b336-0bdfc9c01a78))
    (pin "MP" (uuid 62e36dc4-88a9-4d0e-a7ab-5e478192f588))
  )

  (symbol (lib_id "power:GND") (at 203.2 160.02 0) (unit 1)
    (in_bom yes) (on_board yes)
    (uuid 21b7df74-cf60-4ee4-9b5b-3bf4301b828b)
    (property "Reference" "#PWR02" (id 0) (at 203.2 166.37 0)
      (effects (font (size 1.27 1.27)) hide)
    )
    (property "Value" "GND" (id 1) (at 203.327 164.4142 0))
    (property "Footprint" "" (id 2) (at 203.2 160.02 0)
      (effects (font (size 1.27 1.27)) hide)
    )
    (property "Datasheet" "" (id 3) (at 203.2 160.02 0)
      (effects (font (size 1.27 1.27)) hide)
    )
    (pin "1" (uuid cb2bfc6b-006e-4024-8148-53f0d0dcdfb9))
  )

  (symbol (lib_id "Interface_USB:CH330N") (at 256.54 100.33 0) (unit 1)
    (in_bom yes) (on_board yes) (fields_autoplaced)
    (uuid 365424d0-8d72-4846-833d-6fb3a4e670b6)
    (property "Reference" "USB-UART1" (id 0) (at 258.5594 90.17 0)
      (effects (font (size 1.27 1.27)) (justify left))
    )
    (property "Value" "CH330N" (id 1) (at 258.5594 92.71 0)
      (effects (font (size 1.27 1.27)) (justify left))
    )
    (property "Footprint" "Package_SO:SOIC-8_3.9x4.9mm_P1.27mm" (id 2) (at 252.73 81.28 0)
      (effects (font (size 1.27 1.27)) hide)
    )
    (property "Datasheet" "http://www.wch.cn/downloads/file/240.html" (id 3) (at 254 95.25 0)
      (effects (font (size 1.27 1.27)) hide)
    )
    (pin "1" (uuid 0c59afa0-05b3-4a05-bf23-73f0a065d630))
    (pin "2" (uuid 6703045f-520f-42f5-b6aa-bad1f370e286))
    (pin "3" (uuid 54f5f65b-786b-4037-93a3-12ccc5f53f96))
    (pin "4" (uuid d254687e-1e10-4fc6-872a-5909cccd4921))
    (pin "5" (uuid 7ac3c36a-85f7-4aef-85b9-7989a285c120))
    (pin "6" (uuid 67d5ab00-43b7-4b5c-a128-05f753f4d87f))
    (pin "7" (uuid e94cdb6e-2e58-4398-9aac-afcad02d3cf7))
    (pin "8" (uuid b14b5b6e-d153-466e-b722-a98ad6dfa038))
  )

  (symbol (lib_id "power:GND") (at 193.04 160.02 0) (unit 1)
    (in_bom yes) (on_board yes)
    (uuid 4104dc5c-7353-4f49-a32a-39409d271cea)
    (property "Reference" "#PWR01" (id 0) (at 193.04 166.37 0)
      (effects (font (size 1.27 1.27)) hide)
    )
    (property "Value" "GND" (id 1) (at 193.167 164.4142 0))
    (property "Footprint" "" (id 2) (at 193.04 160.02 0)
      (effects (font (size 1.27 1.27)) hide)
    )
    (property "Datasheet" "" (id 3) (at 193.04 160.02 0)
      (effects (font (size 1.27 1.27)) hide)
    )
    (pin "1" (uuid 69e630c6-b743-4632-a3a5-be174b165182))
  )

  (symbol (lib_id "Analog_ADC:MCP3008") (at 191.77 144.78 0) (unit 1)
    (in_bom yes) (on_board yes)
    (uuid 4d87b157-ce70-4012-a0d9-87eb85e410f2)
    (property "Reference" "ADC1" (id 0) (at 191.77 127.4826 0))
    (property "Value" "MCP3008" (id 1) (at 191.77 129.794 0))
    (property "Footprint" "" (id 2) (at 194.31 142.24 0)
      (effects (font (size 1.27 1.27)) hide)
    )
    (property "Datasheet" "http://ww1.microchip.com/downloads/en/DeviceDoc/21295d.pdf" (id 3) (at 194.31 142.24 0)
      (effects (font (size 1.27 1.27)) hide)
    )
    (pin "1" (uuid 24e2a7c6-04d5-4826-b10f-898baad7cabc))
    (pin "10" (uuid 4030fc0a-6706-4d33-8f1e-6e6ff6fd311a))
    (pin "11" (uuid a3b4dd4a-c522-40f2-b825-f444d434bc45))
    (pin "12" (uuid 8b116a9c-78ae-4ba8-88e3-dea69f7f7679))
    (pin "13" (uuid fcf828a8-6a68-4af1-86ca-2c764febac49))
    (pin "14" (uuid b7c3d180-6866-4276-b12d-163abd8f383f))
    (pin "15" (uuid 9eec6e07-1616-4750-9c05-f33efc80d645))
    (pin "16" (uuid 21eb61c4-10a6-4399-b877-9068cc825354))
    (pin "2" (uuid 517a66fa-8c02-45ed-ad84-ea045e887b69))
    (pin "3" (uuid 1babdcc8-2b5a-4f3d-b4f5-a492b9d2021a))
    (pin "4" (uuid 3351caa8-b7b2-4d78-ac51-6bcfd0a63526))
    (pin "5" (uuid 463c1ffd-5366-4e72-a9bb-7a1a83253744))
    (pin "6" (uuid 381c8ff2-81b6-493f-8f67-920716d2cbe9))
    (pin "7" (uuid 4818779e-2172-4db1-86f9-e082cb480db6))
    (pin "8" (uuid 4404d463-4c7b-4e3d-acec-c8797e50b819))
    (pin "9" (uuid 8f2344ac-4117-4fec-97eb-33c6ee1442fa))
  )

  (symbol (lib_id "power:GND") (at 222.25 135.89 0) (unit 1)
    (in_bom yes) (on_board yes)
    (uuid 5bf3a287-1f81-463b-9fde-1004742351f8)
    (property "Reference" "#PWR05" (id 0) (at 222.25 142.24 0)
      (effects (font (size 1.27 1.27)) hide)
    )
    (property "Value" "GND" (id 1) (at 222.377 140.2842 0))
    (property "Footprint" "" (id 2) (at 222.25 135.89 0)
      (effects (font (size 1.27 1.27)) hide)
    )
    (property "Datasheet" "" (id 3) (at 222.25 135.89 0)
      (effects (font (size 1.27 1.27)) hide)
    )
    (pin "1" (uuid 4f381791-c1a2-4662-9fd8-2ca3a9f5cdf4))
  )

  (symbol (lib_id "Memory_EEPROM:24AA02-OT") (at 215.9 128.27 0) (unit 1)
    (in_bom yes) (on_board yes)
    (uuid 82ce02bc-fbc1-469e-9bdf-43b2612fc814)
    (property "Reference" "EEPROM1" (id 0) (at 207.518 127.1016 0)
      (effects (font (size 1.27 1.27)) (justify right))
    )
    (property "Value" "EEPROM" (id 1) (at 207.518 129.413 0)
      (effects (font (size 1.27 1.27)) (justify right))
    )
    (property "Footprint" "Package_TO_SOT_SMD:SOT-23-5" (id 2) (at 215.9 128.27 0)
      (effects (font (size 1.27 1.27)) hide)
    )
    (property "Datasheet" "http://ww1.microchip.com/downloads/en/DeviceDoc/21709J.pdf" (id 3) (at 215.9 128.27 0)
      (effects (font (size 1.27 1.27)) hide)
    )
    (pin "1" (uuid 843129a2-c9a5-4e48-b9ba-9055c7cae1b1))
    (pin "2" (uuid 89110d12-916f-442a-9fb6-548d31e6727a))
    (pin "3" (uuid b3e7517a-47c4-4f86-931c-5c165f0f9e62))
    (pin "4" (uuid 6ff3b64d-7e5b-4fc2-81eb-a5c739588326))
    (pin "5" (uuid edc6155d-03f6-47e5-8654-8c114bc2c689))
  )

  (symbol (lib_id "power:GND") (at 229.87 116.84 0) (unit 1)
    (in_bom yes) (on_board yes) (fields_autoplaced)
    (uuid ac379270-8e4c-4f90-ac4b-846c656d5db9)
    (property "Reference" "#PWR06" (id 0) (at 229.87 123.19 0)
      (effects (font (size 1.27 1.27)) hide)
    )
    (property "Value" "GND" (id 1) (at 229.87 121.92 0))
    (property "Footprint" "" (id 2) (at 229.87 116.84 0)
      (effects (font (size 1.27 1.27)) hide)
    )
    (property "Datasheet" "" (id 3) (at 229.87 116.84 0)
      (effects (font (size 1.27 1.27)) hide)
    )
    (pin "1" (uuid 20a150e2-36c0-4744-9f41-31ab9c8b14db))
  )

  (symbol (lib_id "power:GND") (at 208.28 153.67 0) (unit 1)
    (in_bom yes) (on_board yes) (fields_autoplaced)
    (uuid bd223a08-8900-4a2d-9648-8b9f688b6328)
    (property "Reference" "#PWR04" (id 0) (at 208.28 160.02 0)
      (effects (font (size 1.27 1.27)) hide)
    )
    (property "Value" "GND" (id 1) (at 208.28 158.75 0))
    (property "Footprint" "" (id 2) (at 208.28 153.67 0)
      (effects (font (size 1.27 1.27)) hide)
    )
    (property "Datasheet" "" (id 3) (at 208.28 153.67 0)
      (effects (font (size 1.27 1.27)) hide)
    )
    (pin "1" (uuid da504da1-16d9-472d-8624-19dbcac1736b))
  )

  (symbol (lib_id "power:GND") (at 256.54 115.57 0) (unit 1)
    (in_bom yes) (on_board yes) (fields_autoplaced)
    (uuid c39b6ada-5b78-47c2-b642-d107693e3221)
    (property "Reference" "#PWR07" (id 0) (at 256.54 121.92 0)
      (effects (font (size 1.27 1.27)) hide)
    )
    (property "Value" "GND" (id 1) (at 256.54 120.65 0))
    (property "Footprint" "" (id 2) (at 256.54 115.57 0)
      (effects (font (size 1.27 1.27)) hide)
    )
    (property "Datasheet" "" (id 3) (at 256.54 115.57 0)
      (effects (font (size 1.27 1.27)) hide)
    )
    (pin "1" (uuid 402954a3-8774-4b41-8a6d-deeab804a082))
  )

  (symbol (lib_id "power:PWR_FLAG") (at 201.93 104.14 0) (unit 1)
    (in_bom yes) (on_board yes) (fields_autoplaced)
    (uuid cfdb689a-fbf9-4793-8c68-ce4030851e94)
    (property "Reference" "#FLG01" (id 0) (at 201.93 102.235 0)
      (effects (font (size 1.27 1.27)) hide)
    )
    (property "Value" "PWR_FLAG" (id 1) (at 201.93 99.06 0))
    (property "Footprint" "" (id 2) (at 201.93 104.14 0)
      (effects (font (size 1.27 1.27)) hide)
    )
    (property "Datasheet" "~" (id 3) (at 201.93 104.14 0)
      (effects (font (size 1.27 1.27)) hide)
    )
    (pin "1" (uuid fa10ffe0-dcd1-4783-ae56-8cd1f42e797d))
  )

  (symbol (lib_id "power:GND") (at 189.23 106.68 0) (unit 1)
    (in_bom yes) (on_board yes)
    (uuid d2e45005-a72e-42cf-90fb-f175342788d0)
    (property "Reference" "#PWR03" (id 0) (at 189.23 113.03 0)
      (effects (font (size 1.27 1.27)) hide)
    )
    (property "Value" "GND" (id 1) (at 189.357 111.0742 0))
    (property "Footprint" "" (id 2) (at 189.23 106.68 0)
      (effects (font (size 1.27 1.27)) hide)
    )
    (property "Datasheet" "" (id 3) (at 189.23 106.68 0)
      (effects (font (size 1.27 1.27)) hide)
    )
    (pin "1" (uuid bbf09e6a-bd56-4b91-b25d-d302cdf412e2))
  )

  (sheet_instances
    (path "/" (page "1"))
  )

  (symbol_instances
    (path "/cfdb689a-fbf9-4793-8c68-ce4030851e94"
      (reference "#FLG01") (unit 1) (value "PWR_FLAG") (footprint "")
    )
    (path "/4104dc5c-7353-4f49-a32a-39409d271cea"
      (reference "#PWR01") (unit 1) (value "GND") (footprint "")
    )
    (path "/21b7df74-cf60-4ee4-9b5b-3bf4301b828b"
      (reference "#PWR02") (unit 1) (value "GND") (footprint "")
    )
    (path "/d2e45005-a72e-42cf-90fb-f175342788d0"
      (reference "#PWR03") (unit 1) (value "GND") (footprint "")
    )
    (path "/bd223a08-8900-4a2d-9648-8b9f688b6328"
      (reference "#PWR04") (unit 1) (value "GND") (footprint "")
    )
    (path "/5bf3a287-1f81-463b-9fde-1004742351f8"
      (reference "#PWR05") (unit 1) (value "GND") (footprint "")
    )
    (path "/ac379270-8e4c-4f90-ac4b-846c656d5db9"
      (reference "#PWR06") (unit 1) (value "GND") (footprint "")
    )
    (path "/c39b6ada-5b78-47c2-b642-d107693e3221"
      (reference "#PWR07") (unit 1) (value "GND") (footprint "")
    )
    (path "/4d87b157-ce70-4012-a0d9-87eb85e410f2"
      (reference "ADC1") (unit 1) (value "MCP3008") (footprint "")
    )
    (path "/82ce02bc-fbc1-469e-9bdf-43b2612fc814"
      (reference "EEPROM1") (unit 1) (value "EEPROM") (footprint "Package_TO_SOT_SMD:SOT-23-5")
    )
    (path "/365424d0-8d72-4846-833d-6fb3a4e670b6"
      (reference "USB-UART1") (unit 1) (value "CH330N") (footprint "Package_SO:SOIC-8_3.9x4.9mm_P1.27mm")
    )
    (path "/052bdf62-e674-4ce6-a647-03593b114255"
      (reference "USBConnector1") (unit 1) (value "USB_A") (footprint "")
    )
    (path "/1f9d26c3-c634-41de-bcc5-9d718a55f5ad"
      (reference "pinConnector1") (unit 1) (value "Conn_01x10_MountingPin") (footprint "")
    )
  )
)
