"Source:","C:\Users\Uzzi\Documents\Interface\Working\Interface.kicad_sch"
"Date:","3/11/2022 3:15:54 PM"
"Tool:","Eeschema (6.0.2)"
"Generator:","C:\Program Files\KiCad\6.0\bin\scripting\plugins/bom_csv_grouped_by_value.py"
"Component Count:","5"

"Individual Components:"

"Item","Qty","Reference(s)","Value","LibPart","Footprint","Datasheet"
"","","ADC1","MCP3008","Analog_ADC:MCP3008","","http://ww1.microchip.com/downloads/en/DeviceDoc/21295d.pdf"
"","","EEPROM1","EEPROM","Memory_EEPROM:24AA02-OT","Package_TO_SOT_SMD:SOT-23-5","http://ww1.microchip.com/downloads/en/DeviceDoc/21709J.pdf"
"","","pinConnector1","Conn_01x10_MountingPin","Connector_Generic_MountingPin:Conn_01x10_MountingPin","","~"
"","","USB-UART1","CH330N","Interface_USB:CH330N","Package_SO:SOIC-8_3.9x4.9mm_P1.27mm","http://www.wch.cn/downloads/file/240.html"
"","","USBConnector1","USB_A","Connector:USB_A",""," ~"



"Collated Components:"

"Item","Qty","Reference(s)","Value","LibPart","Footprint","Datasheet"
"1","1","ADC1","MCP3008","Analog_ADC:MCP3008","","http://ww1.microchip.com/downloads/en/DeviceDoc/21295d.pdf"
"2","1","EEPROM1","EEPROM","Memory_EEPROM:24AA02-OT","Package_TO_SOT_SMD:SOT-23-5","http://ww1.microchip.com/downloads/en/DeviceDoc/21709J.pdf"
"3","1","pinConnector1","Conn_01x10_MountingPin","Connector_Generic_MountingPin:Conn_01x10_MountingPin","","~"
"4","1","USB-UART1","CH330N","Interface_USB:CH330N","Package_SO:SOIC-8_3.9x4.9mm_P1.27mm","http://www.wch.cn/downloads/file/240.html"
"5","1","USBConnector1","USB_A","Connector:USB_A",""," ~"
